Lecture 4: Data Wrangling in the Tidyverse
…
---

# 2) dplyr::select to exclude variables
The `-` means "select everything but".

```r
ncbreweries %>%
  select(-type)
```

```
## # A tibble: 251 x 6
##    name          city     beercount   est status url                       
##    <chr>         <chr>        <dbl> <dbl> <chr>  <chr>                     
##  1 217 Brew Wor… Wilson          10  2017 Active https://www.ratebeer.com/…
##  2 3rd Rock Bre… Trenton         12  2016 Active https://www.ratebeer.com/…
##  3 7 Clans Brew… Cherokee         1  2018 Active https://www.ratebeer.com/…
##  4 Andrews Brew… Andrews         18  2014 Active https://www.ratebeer.com/…
##  5 Angry Troll … Elkin            8  2017 Active https://www.ratebeer.com/…
##  6 Appalachian … Boone           78  2013 Active https://www.ratebeer.com/…
##  7 Archetype Br… Ashevil…        15  2017 Active https://www.ratebeer.com/…
##  8 Asheville Br… Ashevil…        87  2003 Active https://www.ratebeer.com/…
##  9 Ass Clown Br… Corneli…       106  2011 Active https://www.ratebeer.com/…
## 10 Aviator Brew… Fuquay …        59  2008 Active https://www.ratebeer.com/…
## # … with 241 more rows
```

---

# 2) dplyr::select a range of variables

You can use "first:last" for consecutive columns, or just list out the columns separated by commas. 

```r
ncbreweries %>%
  select(city:beercount)
```

```
## # A tibble: 251 x 3
##    city          type          beercount
##    <chr>         <chr>             <dbl>
##  1 Wilson        Microbrewery         10
##  2 Trenton       Microbrewery         12
##  3 Cherokee      Client Brewer         1
##  4 Andrews       Microbrewery         18
##  5 Elkin         Microbrewery          8
##  6 Boone         Microbrewery         78
##  7 Asheville     Microbrewery         15
##  8 Asheville     Brewpub              87
##  9 Cornelius     Microbrewery        106
## 10 Fuquay Varina Microbrewery         59
## # … with 241 more rows
```

---

# 2) dplyr::select to rename columns

The new name goes first.

```r
ncbreweries %>%
  select(town=city)
```

```
## # A tibble: 251 x 1
##    town         
##    <chr>        
##  1 Wilson       
##  2 Trenton      
##  3 Cherokee     
##  4 Andrews      
##  5 Elkin        
##  6 Boone        
##  7 Asheville    
##  8 Asheville    
##  9 Cornelius    
## 10 Fuquay Varina
## # … with 241 more rows
```

---
# 2) dplyr::select with a pattern

The `select(contains(PATTERN))` option provides a nice shortcut in relevant cases. Another example of using text. Only one variable contains "type" in this case.

```r
ncbreweries %>% 
  select(name, contains("type"))
```

```
## # A tibble: 251 x 2
##    name                         type         
##    <chr>                        <chr>        
##  1 217 Brew Works               Microbrewery 
##  2 3rd Rock Brewing Company     Microbrewery 
##  3 7 Clans Brewing              Client Brewer
##  4 Andrews Brewing Company      Microbrewery 
##  5 Angry Troll Brewing          Microbrewery 
##  6 Appalachian Mountain Brewery Microbrewery 
##  7 Archetype Brewing            Microbrewery 
##  8 Asheville Brewing Company    Brewpub      
##  9 Ass Clown Brewing Company    Microbrewery 
## 10 Aviator Brewing Company      Microbrewery 
## # … with 241 more rows
```

---
# 2) dplyr::select everything

The `select(..., everything())` option is another useful shortcut if you only want to bring some variable(s) to the "front" of a data frame.

```r
ncbreweries %>% 
  select(name, beercount, everything())
```

```
## # A tibble: 251 x 7
##    name        beercount city    type      est status url                  
##    <chr>           <dbl> <chr>   <chr>   <dbl> <chr>  <chr>                
##  1 217 Brew W…        10 Wilson  Microb…  2017 Active https://www.ratebeer…
##  2 3rd Rock B…        12 Trenton Microb…  2016 Active https://www.ratebeer…
##  3 7 Clans Br…         1 Cherok… Client…  2018 Active https://www.ratebeer…
##  4 Andrews Br…        18 Andrews Microb…  2014 Active https://www.ratebeer…
##  5 Angry Trol…         8 Elkin   Microb…  2017 Active https://www.ratebeer…
##  6 Appalachia…        78 Boone   Microb…  2013 Active https://www.ratebeer…
##  7 Archetype …        15 Ashevi… Microb…  2017 Active https://www.ratebeer…
##  8 Asheville …        87 Ashevi… Brewpub  2003 Active https://www.ratebeer…
##  9 Ass Clown …       106 Cornel… Microb…  2011 Active https://www.ratebeer…
## 10 Aviator Br…        59 Fuquay… Microb…  2008 Active https://www.ratebeer…
## # … with 241 more rows
```
…
---

# 6) dplyr::distinct to filter for unique rows

And `arrange` to sort columns. Character columns get sorted alphabetically. We can also arrange items in descending order using `arrange(desc())`.

```r
ncbreweries %>% 
  select(city, type) %>% 
  distinct() %>% 
  arrange(type, city)
```

```
## # A tibble: 138 x 2
##    city          type   
##    <chr>         <chr>  
##  1 Andrews       Brewpub
##  2 Arden         Brewpub
##  3 Asheville     Brewpub
##  4 Boone         Brewpub
##  5 Chapel Hill   Brewpub
##  6 Charlotte     Brewpub
##  7 Farmville     Brewpub
##  8 Fayetteville  Brewpub
##  9 Fuqauy Varina Brewpub
## 10 Greenville    Brewpub
## # … with 128 more rows
```
…
---

# 8) dplyr::count observations in groups

You can also count pairs. 

```r
ncbreweries %>% 
  count(city, type)
```

```
## # A tibble: 138 x 3
##    city      type                n
##    <chr>     <chr>           <int>
##  1 Aberdeen  Microbrewery        1
##  2 Andrews   Brewpub             1
##  3 Andrews   Microbrewery        2
##  4 Angier    Microbrewery        2
##  5 Apex      Brewpub/Brewery     1
##  6 Apex      Microbrewery        2
##  7 Arden     Brewpub             1
##  8 Asheboro  Microbrewery        1
##  9 Asheville Brewpub             5
## 10 Asheville Brewpub/Brewery     5
## # … with 128 more rows
```
…
---
# 9) dplyr::mutate to add new variables

Other ways to get at the same thing. Note that different methods create different types of variables.

```r
ncbreweries %>% 
  mutate(new = est >= 2000) %>%
  mutate(est_category = ifelse(est >= 2000, "New", "Old")) 
```

```
## # A tibble: 251 x 9
##    name    city   type  beercount   est status url       new   est_category
##    <chr>   <chr>  <chr>     <dbl> <dbl> <chr>  <chr>     <lgl> <chr>       
##  1 217 Br… Wilson Micr…        10  2017 Active https://… TRUE  New         
##  2 3rd Ro… Trent… Micr…        12  2016 Active https://… TRUE  New         
##  3 7 Clan… Chero… Clie…         1  2018 Active https://… TRUE  New         
##  4 Andrew… Andre… Micr…        18  2014 Active https://… TRUE  New         
##  5 Angry … Elkin  Micr…         8  2017 Active https://… TRUE  New         
##  6 Appala… Boone  Micr…        78  2013 Active https://… TRUE  New         
##  7 Archet… Ashev… Micr…        15  2017 Active https://… TRUE  New         
##  8 Ashevi… Ashev… Brew…        87  2003 Active https://… TRUE  New         
##  9 Ass Cl… Corne… Micr…       106  2011 Active https://… TRUE  New         
## 10 Aviato… Fuqua… Micr…        59  2008 Active https://… TRUE  New         
## # … with 241 more rows
```
…
